project7/cpu/cpubench.vcd
$date
  Mon Nov 27 14:14:13 2023
$end
$version
  GHDL v0
$end
$timescale
  1 fs
$end
$scope module standard $end
$upscope $end
$scope module std_logic_1164 $end
$upscope $end
$scope module numeric_std $end
$upscope $end
$scope module std_logic_arith $end
$upscope $end
$scope module std_logic_unsigned $end
$upscope $end
$scope module textio $end
$upscope $end
$scope module altera_common_conversion $end
$upscope $end
$scope module altera_device_families $end
$upscope $end
$scope module cpubench $end
$var reg 8 ! iport[7:0] $end
$var reg 16 " oport[15:0] $end
$var reg 8 # pc[7:0] $end
$var reg 16 $ ir[15:0] $end
$var reg 16 % ra[15:0] $end
$var reg 16 & rb[15:0] $end
$var reg 16 ' rc[15:0] $end
$var reg 16 ( rd[15:0] $end
$var reg 16 ) re[15:0] $end
$var reg 1 * clk $end
$var reg 1 + reset $end
$scope module cpuinstance $end
$var reg 1 , clk $end
$var reg 1 - reset $end
$var reg 8 . pcview[7:0] $end
$var reg 16 / irview[15:0] $end
$var reg 16 0 raview[15:0] $end
$var reg 16 1 rbview[15:0] $end
$var reg 16 2 rcview[15:0] $end
$var reg 16 3 rdview[15:0] $end
$var reg 16 4 review[15:0] $end
$var reg 8 5 iport[7:0] $end
$var reg 16 6 oport[15:0] $end
$comment state is not handled $end
$var reg 3 7 counter3bit[2:0] $end
$var reg 8 8 pc[7:0] $end
$var reg 16 9 ir[15:0] $end
$var reg 16 : sp[15:0] $end
$var reg 16 ; ra[15:0] $end
$var reg 16 < rb[15:0] $end
$var reg 16 = rc[15:0] $end
$var reg 16 > rd[15:0] $end
$var reg 16 ? re[15:0] $end
$var reg 16 @ mbr[15:0] $end
$var reg 8 A mar[7:0] $end
$var reg 4 B cr[3:0] $end
$var reg 16 C outreg[15:0] $end
$var reg 16 D alusrca[15:0] $end
$var reg 16 E alusrcb[15:0] $end
$var reg 3 F aluop[2:0] $end
$var reg 4 G alucr[3:0] $end
$var reg 16 H aluout[15:0] $end
$var reg 16 I romout[15:0] $end
$var reg 16 J ramout[15:0] $end
$var reg 1 K ramwe $end
$scope module programrom_0 $end
$var reg 8 L address[7:0] $end
$var reg 1 M clock $end
$var reg 16 N q[15:0] $end
$var reg 16 O sub_wire0[15:0] $end
$scope module altsyncram_component $end
$var reg 1 P wren_a $end
$var reg 1 Q wren_b $end
$var reg 1 R rden_a $end
$var reg 1 S rden_b $end
$var reg 16 T data_a[15:0] $end
$var reg 1 U data_b[0:0] $end
$var reg 8 V address_a[7:0] $end
$var reg 1 W address_b[0:0] $end
$var reg 1 X clock0 $end
$var reg 1 Y clock1 $end
$var reg 1 Z clocken0 $end
$var reg 1 [ clocken1 $end
$var reg 1 \ clocken2 $end
$var reg 1 ] clocken3 $end
$var reg 1 ^ aclr0 $end
$var reg 1 _ aclr1 $end
$var reg 1 ` addressstall_a $end
$var reg 1 a addressstall_b $end
$var reg 1 b byteena_a[0:0] $end
$var reg 1 c byteena_b[0:0] $end
$var reg 16 d q_a[15:0] $end
$var reg 1 e q_b[0:0] $end
$var reg 3 f eccstatus[2:0] $end
$var reg 16 g i_data_reg_a[15:0] $end
$var reg 1 h i_data_reg_b[0:0] $end
$var reg 16 i i_q_reg_a[15:0] $end
$var reg 16 j i_q_tmp_a[15:0] $end
$var reg 16 k i_q_tmp2_a[15:0] $end
$var reg 16 l i_q_tmp_wren_a[15:0] $end
$var reg 16 m i_q_tmp2_wren_a[15:0] $end
$var reg 1 n i_q_tmp_wren_b[0:0] $end
$var reg 1 o i_q_reg_b[0:0] $end
$var reg 1 p i_q_tmp_b[0:0] $end
$var reg 1 q i_q_tmp2_b[0:0] $end
$var reg 1 r i_q_output_latch[0:0] $end
$var reg 1 s i_q_ecc_reg_b[0:0] $end
$var reg 1 t i_q_ecc_tmp_b[0:0] $end
$var reg 16 u i_current_written_data_a[15:0] $end
$var reg 16 v i_original_data_a[15:0] $end
$var reg 1 w i_original_data_b[0:0] $end
$var reg 16 x i_byteena_mask_reg_a_x[15:0] $end
$var reg 1 y i_byteena_mask_reg_b_x[0:0] $end
$var reg 16 z i_byteena_mask_reg_a[15:0] $end
$var reg 1 { i_byteena_mask_reg_b[0:0] $end
$var reg 16 | i_byteena_mask_reg_a_out[15:0] $end
$var reg 1 } i_byteena_mask_reg_b_out[0:0] $end
$var reg 16 !" i_byteena_mask_reg_a_out_b[15:0] $end
$var reg 1 "" i_byteena_mask_reg_b_out_a[0:0] $end
$var reg 8 #" i_address_reg_a[7:0] $end
$var reg 1 $" i_address_reg_b[0:0] $end
$var reg 1 %" i_wren_reg_a $end
$var reg 1 &" i_wren_reg_b $end
$var reg 1 '" i_rden_reg_a $end
$var reg 1 (" i_rden_reg_b $end
$var reg 1 )" i_read_flag_a $end
$var reg 1 *" i_read_flag_b $end
$var reg 1 +" i_reread_flag_a $end
$var reg 1 ," i_reread_flag_b $end
$var reg 1 -" i_reread_flag2_a $end
$var reg 1 ." i_reread_flag2_b $end
$var reg 1 /" i_write_flag_a $end
$var reg 1 0" i_write_flag_b $end
$var reg 1 1" i_nmram_write_a $end
$var reg 1 2" i_nmram_write_b $end
$var reg 1 3" i_indata_aclr_a $end
$var reg 1 4" i_address_aclr_a $end
$var reg 1 5" i_wrcontrol_aclr_a $end
$var reg 1 6" i_indata_aclr_b $end
$var reg 1 7" i_address_aclr_b $end
$var reg 1 8" i_wrcontrol_aclr_b $end
$var reg 1 9" i_outdata_aclr_a $end
$var reg 1 :" i_outdata_aclr_b $end
$var reg 1 ;" i_rdcontrol_aclr_b $end
$var reg 1 <" i_byteena_aclr_a $end
$var reg 1 =" i_byteena_aclr_b $end
$var reg 1 >" good_to_go_a $end
$var reg 1 ?" good_to_go_b $end
$var reg 1 @" i_core_clocken_a $end
$var reg 1 A" i_core_clocken_b $end
$var reg 1 B" i_core_clocken_b0 $end
$var reg 1 C" i_core_clocken_b1 $end
$var reg 1 D" i_inclocken0 $end
$var reg 1 E" i_input_clocken_b $end
$var reg 1 F" i_outdata_clken_b $end
$var reg 1 G" i_outdata_clken_a $end
$var reg 1 H" i_outlatch_clken_a $end
$var reg 1 I" i_outlatch_clken_b $end
$var reg 1 J" i_core_clocken_a_reg $end
$var reg 1 K" i_core_clocken_b_reg $end
$var reg 1 L" default_val $end
$var reg 16 M" i_data_zero_a[15:0] $end
$var reg 1 N" i_data_zero_b[0:0] $end
$var reg 16 O" i_data_ones_a[15:0] $end
$var reg 1 P" i_data_ones_b[0:0] $end
$var reg 1 Q" same_clock_pulse0 $end
$var reg 1 R" same_clock_pulse1 $end
$var reg 1 S" i_force_reread_a $end
$var reg 1 T" i_force_reread_a1 $end
$var reg 1 U" i_force_reread_b $end
$var reg 1 V" i_force_reread_b1 $end
$var reg 1 W" i_force_reread_signal_a $end
$var reg 1 X" i_force_reread_signal_b $end
$var reg 1 Y" i_good_to_write_a $end
$var reg 1 Z" i_good_to_write_b $end
$scope module ifg02 $end
$upscope $end
$scope module ifg03a $end
$upscope $end
$scope module ifg15 $end
$upscope $end
$scope module ifg172a $end
$upscope $end
$scope module ifg50a $end
$upscope $end
$scope module ifg51a $end
$upscope $end
$scope module ifg52b $end
$upscope $end
$scope module ifclr01 $end
$upscope $end
$scope module ifg52 $end
$upscope $end
$scope module ifg57 $end
$upscope $end
$upscope $end
$upscope $end
$scope module dataram_0 $end
$var reg 8 [" address[7:0] $end
$var reg 1 \" clock $end
$var reg 16 ]" data[15:0] $end
$var reg 1 ^" wren $end
$var reg 16 _" q[15:0] $end
$var reg 16 `" sub_wire0[15:0] $end
$scope module altsyncram_component $end
$var reg 1 a" wren_a $end
$var reg 1 b" wren_b $end
$var reg 1 c" rden_a $end
$var reg 1 d" rden_b $end
$var reg 16 e" data_a[15:0] $end
$var reg 1 f" data_b[0:0] $end
$var reg 8 g" address_a[7:0] $end
$var reg 1 h" address_b[0:0] $end
$var reg 1 i" clock0 $end
$var reg 1 j" clock1 $end
$var reg 1 k" clocken0 $end
$var reg 1 l" clocken1 $end
$var reg 1 m" clocken2 $end
$var reg 1 n" clocken3 $end
$var reg 1 o" aclr0 $end
$var reg 1 p" aclr1 $end
$var reg 1 q" addressstall_a $end
$var reg 1 r" addressstall_b $end
$var reg 1 s" byteena_a[0:0] $end
$var reg 1 t" byteena_b[0:0] $end
$var reg 16 u" q_a[15:0] $end
$var reg 1 v" q_b[0:0] $end
$var reg 3 w" eccstatus[2:0] $end
$var reg 16 x" i_data_reg_a[15:0] $end
$var reg 1 y" i_data_reg_b[0:0] $end
$var reg 16 z" i_q_reg_a[15:0] $end
$var reg 16 {" i_q_tmp_a[15:0] $end
$var reg 16 |" i_q_tmp2_a[15:0] $end
$var reg 16 }" i_q_tmp_wren_a[15:0] $end
$var reg 16 !# i_q_tmp2_wren_a[15:0] $end
$var reg 1 "# i_q_tmp_wren_b[0:0] $end
$var reg 1 ## i_q_reg_b[0:0] $end
$var reg 1 $# i_q_tmp_b[0:0] $end
$var reg 1 %# i_q_tmp2_b[0:0] $end
$var reg 1 &# i_q_output_latch[0:0] $end
$var reg 1 '# i_q_ecc_reg_b[0:0] $end
$var reg 1 (# i_q_ecc_tmp_b[0:0] $end
$var reg 16 )# i_current_written_data_a[15:0] $end
$var reg 16 *# i_original_data_a[15:0] $end
$var reg 1 +# i_original_data_b[0:0] $end
$var reg 16 ,# i_byteena_mask_reg_a_x[15:0] $end
$var reg 1 -# i_byteena_mask_reg_b_x[0:0] $end
$var reg 16 .# i_byteena_mask_reg_a[15:0] $end
$var reg 1 /# i_byteena_mask_reg_b[0:0] $end
$var reg 16 0# i_byteena_mask_reg_a_out[15:0] $end
$var reg 1 1# i_byteena_mask_reg_b_out[0:0] $end
$var reg 16 2# i_byteena_mask_reg_a_out_b[15:0] $end
$var reg 1 3# i_byteena_mask_reg_b_out_a[0:0] $end
$var reg 8 4# i_address_reg_a[7:0] $end
$var reg 1 5# i_address_reg_b[0:0] $end
$var reg 1 6# i_wren_reg_a $end
$var reg 1 7# i_wren_reg_b $end
$var reg 1 8# i_rden_reg_a $end
$var reg 1 9# i_rden_reg_b $end
$var reg 1 :# i_read_flag_a $end
$var reg 1 ;# i_read_flag_b $end
$var reg 1 <# i_reread_flag_a $end
$var reg 1 =# i_reread_flag_b $end
$var reg 1 ># i_reread_flag2_a $end
$var reg 1 ?# i_reread_flag2_b $end
$var reg 1 @# i_write_flag_a $end
$var reg 1 A# i_write_flag_b $end
$var reg 1 B# i_nmram_write_a $end
$var reg 1 C# i_nmram_write_b $end
$var reg 1 D# i_indata_aclr_a $end
$var reg 1 E# i_address_aclr_a $end
$var reg 1 F# i_wrcontrol_aclr_a $end
$var reg 1 G# i_indata_aclr_b $end
$var reg 1 H# i_address_aclr_b $end
$var reg 1 I# i_wrcontrol_aclr_b $end
$var reg 1 J# i_outdata_aclr_a $end
$var reg 1 K# i_outdata_aclr_b $end
$var reg 1 L# i_rdcontrol_aclr_b $end
$var reg 1 M# i_byteena_aclr_a $end
$var reg 1 N# i_byteena_aclr_b $end
$var reg 1 O# good_to_go_a $end
$var reg 1 P# good_to_go_b $end
$var reg 1 Q# i_core_clocken_a $end
$var reg 1 R# i_core_clocken_b $end
$var reg 1 S# i_core_clocken_b0 $end
$var reg 1 T# i_core_clocken_b1 $end
$var reg 1 U# i_inclocken0 $end
$var reg 1 V# i_input_clocken_b $end
$var reg 1 W# i_outdata_clken_b $end
$var reg 1 X# i_outdata_clken_a $end
$var reg 1 Y# i_outlatch_clken_a $end
$var reg 1 Z# i_outlatch_clken_b $end
$var reg 1 [# i_core_clocken_a_reg $end
$var reg 1 \# i_core_clocken_b_reg $end
$var reg 1 ]# default_val $end
$var reg 16 ^# i_data_zero_a[15:0] $end
$var reg 1 _# i_data_zero_b[0:0] $end
$var reg 16 `# i_data_ones_a[15:0] $end
$var reg 1 a# i_data_ones_b[0:0] $end
$var reg 1 b# same_clock_pulse0 $end
$var reg 1 c# same_clock_pulse1 $end
$var reg 1 d# i_force_reread_a $end
$var reg 1 e# i_force_reread_a1 $end
$var reg 1 f# i_force_reread_b $end
$var reg 1 g# i_force_reread_b1 $end
$var reg 1 h# i_force_reread_signal_a $end
$var reg 1 i# i_force_reread_signal_b $end
$var reg 1 j# i_good_to_write_a $end
$var reg 1 k# i_good_to_write_b $end
$scope module ifg02 $end
$upscope $end
$scope module ifg03a $end
$upscope $end
$scope module ifg15 $end
$upscope $end
$scope module ifg172a $end
$upscope $end
$scope module ifg50a $end
$upscope $end
$scope module ifg51a $end
$upscope $end
$scope module ifg52b $end
$upscope $end
$scope module ifclr01 $end
$upscope $end
$scope module ifg52 $end
$upscope $end
$scope module ifg57 $end
$upscope $end
$upscope $end
$upscope $end
$scope module alu_0 $end
$var reg 16 l# srca[15:0] $end
$var reg 16 m# srcb[15:0] $end
$var reg 3 n# op[2:0] $end
$var reg 4 o# cr[3:0] $end
$var reg 16 p# dest[15:0] $end
$var reg 17 q# tdest[16:0] $end
$upscope $end
$upscope $end
$upscope $end
$enddefinitions $end
#0
b00000000 !
b0000000000000000 "
b00000000 #
b0000000000000000 $
b0000000000000000 %
b0000000000000000 &
b0000000000000000 '
b0000000000000000 (
b0000000000000000 )
0*
0+
0,
0-
b00000000 .
b0000000000000000 /
b0000000000000000 0
b0000000000000000 1
b0000000000000000 2
b0000000000000000 3
b0000000000000000 4
b00000000 5
b0000000000000000 6
b000 7
b00000000 8
b0000000000000000 9
b0000000000000000 :
b0000000000000000 ;
b0000000000000000 <
b0000000000000000 =
b0000000000000000 >
b0000000000000000 ?
b0000000000000000 @
b00000000 A
b0000 B
b0000000000000000 C
bUUUUUUUUUUUUUUUU D
bUUUUUUUUUUUUUUUU E
bUUU F
b0000 G
bUUUUUUUUUUUUUUUU H
b0000000000000000 I
b0000000000000000 J
0K
b00000000 L
0M
b0000000000000000 N
b0000000000000000 O
0P
0Q
1R
1S
b1111111111111111 T
b1 U
b00000000 V
b1 W
0X
ZY
1Z
1[
1\
1]
0^
0_
0`
0a
b1 b
bZ c
b0000000000000000 d
b0 e
b000 f
b0000000000000000 g
b0 h
b0000000000000000 i
b0000000000000000 j
b0000000000000000 k
b0000000000000000 l
b0000000000000000 m
b0 n
b0 o
b0 p
b0 q
b0 r
b0 s
b0 t
b0000000000000000 u
b0000000000000000 v
b0 w
b0000000000000000 x
b0 y
b1111111111111111 z
b1 {
b1111111111111111 |
b1 }
b1111111111111111 !"
b1 ""
b00000000 #"
b0 $"
0%"
0&"
0'"
0("
0)"
0*"
0+"
0,"
0-"
0."
0/"
00"
01"
02"
03"
04"
05"
06"
07"
08"
09"
0:"
0;"
0<"
0="
0>"
0?"
1@"
1A"
1B"
1C"
1D"
1E"
0F"
1G"
1H"
1I"
0J"
0K"
0L"
b0000000000000000 M"
b0 N"
b1111111111111111 O"
b1 P"
0Q"
0R"
0S"
0T"
0U"
0V"
0W"
0X"
1Y"
1Z"
b00000000 ["
0\"
b0000000000000000 ]"
0^"
b0000000000000000 _"
b0000000000000000 `"
0a"
0b"
1c"
1d"
b0000000000000000 e"
b1 f"
b00000000 g"
b1 h"
0i"
Zj"
1k"
1l"
1m"
1n"
0o"
0p"
0q"
0r"
b1 s"
bZ t"
b0000000000000000 u"
b0 v"
b000 w"
b0000000000000000 x"
b0 y"
b0000000000000000 z"
b0000000000000000 {"
b0000000000000000 |"
b0000000000000000 }"
b0000000000000000 !#
b0 "#
b0 ##
b0 $#
b0 %#
b0 &#
b0 '#
b0 (#
b0000000000000000 )#
b0000000000000000 *#
b0 +#
b0000000000000000 ,#
b0 -#
b1111111111111111 .#
b1 /#
b1111111111111111 0#
b1 1#
b1111111111111111 2#
b1 3#
b00000000 4#
b0 5#
06#
07#
08#
09#
0:#
0;#
0<#
0=#
0>#
0?#
0@#
0A#
0B#
0C#
0D#
0E#
0F#
0G#
0H#
0I#
0J#
0K#
0L#
0M#
0N#
0O#
0P#
1Q#
1R#
1S#
1T#
1U#
1V#
0W#
1X#
1Y#
1Z#
0[#
0\#
0]#
b0000000000000000 ^#
b0 _#
b1111111111111111 `#
b1 a#
0b#
0c#
0d#
0e#
0f#
0g#
0h#
0i#
1j#
1k#
bUUUUUUUUUUUUUUUU l#
bUUUUUUUUUUUUUUUU m#
bUUU n#
b0000 o#
bUUUUUUUUUUUUUUUU p#
bUUUUUUUUUUUUUUUUU q#
#1000000
1*
1+
1,
1-
b001 7
1M
1X
b1111111111111111 g
b1111100000000000 j
b1111100000000000 k
b0000000000000000 |
bXXXXXXXXXXXXXXXX !"
1'"
1)"
1>"
1J"
1\"
1i"
b0000000000000001 {"
b0000000000000001 |"
b0000000000000000 0#
bXXXXXXXXXXXXXXXX 2#
18#
1:#
1B#
1O#
1[#
#2000000
0*
0,
0M
0X
0\"
0i"
#3000000
1*
1,
b010 7
b1111100000000000 I
b0000000000000001 J
1M
b1111100000000000 N
b1111100000000000 O
1X
b1111100000000000 d
b1111100000000000 i
0)"
1\"
b0000000000000001 _"
b0000000000000001 `"
1i"
b0000000000000001 u"
b0000000000000001 z"
0:#
#4000000
0*
0,
0M
0X
0\"
0i"
#5000000
1*
1,
b011 7
1M
1X
1)"
1\"
1i"
1:#
#6000000
0*
0,
0M
0X
0\"
0i"
#7000000
1*
1,
b100 7
1M
1X
0)"
1\"
1i"
0:#
#8000000
0*
0,
0M
0X
0\"
0i"
#9000000
1*
1,
b101 7
1M
1X
1)"
1\"
1i"
1:#
#10000000
0*
0,
0M
0X
0\"
0i"
#11000000
1*
1,
b110 7
1M
1X
0)"
1\"
1i"
0:#
#12000000
0*
0,
0M
0X
0\"
0i"
#13000000
1*
1,
b111 7
1M
1X
1)"
1\"
1i"
1:#
#14000000
0*
0,
0M
0X
0\"
0i"
#15000000
1*
1,
1M
1X
0)"
1\"
1i"
0:#
#16000000
0*
0,
0M
0X
0\"
0i"
#17000000
b00000001 #
b1111100000000000 $
1*
1,
b00000001 .
b1111100000000000 /
b00000001 8
b1111100000000000 9
b00000001 L
1M
b00000001 V
1X
1)"
1\"
1i"
1:#
#18000000
0*
0,
0M
0X
0\"
0i"
#19000000
1*
1,
b0000000000000000 D
b111 F
b0001 G
b0000000000000000 H
1M
1X
b1111100000001001 j
b1111100000001001 k
b00000001 #"
0)"
1\"
1i"
0:#
b0000000000000000 l#
b111 n#
b0001 o#
b0000000000000000 p#
b00000000000000000 q#
#20000000
0*
0,
0M
0X
0\"
0i"
#21000000
1*
1,
b1111100000001001 I
1M
b1111100000001001 N
b1111100000001001 O
1X
b1111100000001001 d
b1111100000001001 i
1)"
1\"
1i"
1:#
#22000000
0*
0,
0M
0X
0\"
0i"
#23000000
1*
1,
b0001 B
1M
1X
0)"
1\"
1i"
0:#
#24000000
0*
0,
0M
0X
0\"
0i"
#25000000
b00000010 #
b1111100000001001 $
1*
1,
b00000010 .
b1111100000001001 /
b00000010 8
b1111100000001001 9
b00000010 L
1M
b00000010 V
1X
1)"
1\"
1i"
1:#
#26000000
0*
0,
0M
0X
0\"
0i"
#27000000
1*
1,
b0000000000000001 D
b0000 G
b0000000000000001 H
1M
1X
b1111100001010100 j
b1111100001010100 k
b00000010 #"
0)"
1\"
1i"
0:#
b0000000000000001 l#
b0000 o#
b0000000000000001 p#
b00000000000000001 q#
#28000000
0*
0,
0M
0X
0\"
0i"
#29000000
1*
1,
b1111100001010100 I
1M
b1111100001010100 N
b1111100001010100 O
1X
b1111100001010100 d
b1111100001010100 i
1)"
1\"
1i"
1:#
#30000000
0*
0,
0M
0X
0\"
0i"
#31000000
b0000000000000001 &
1*
1,
b0000000000000001 1
b0000000000000001 <
b0000 B
1M
1X
0)"
1\"
1i"
0:#
#32000000
0*
0,
0M
0X
0\"
0i"
#33000000
b00000011 #
b1111100001010100 $
1*
1,
b00000011 .
b1111100001010100 /
b00000011 8
b1111100001010100 9
b00000011 L
1M
b00000011 V
1X
1)"
1\"
1i"
1:#
#34000000
0*
0,
0M
0X
0\"
0i"
#35000000
1*
1,
b0000000000001010 D
b0000000000001010 H
1M
1X
b1111100000001011 j
b1111100000001011 k
b00000011 #"
0)"
1\"
1i"
0:#
b0000000000001010 l#
b0000000000001010 p#
b00000000000001010 q#
#36000000
0*
0,
0M
0X
0\"
0i"
#37000000
1*
1,
b1111100000001011 I
1M
b1111100000001011 N
b1111100000001011 O
1X
b1111100000001011 d
b1111100000001011 i
1)"
1\"
1i"
1:#
#38000000
0*
0,
0M
0X
0\"
0i"
#39000000
b0000000000001010 )
1*
1,
b0000000000001010 4
b0000000000001010 ?
1M
1X
0)"
1\"
1i"
0:#
#40000000
0*
0,
0M
0X
0\"
0i"
#41000000
b00000100 #
b1111100000001011 $
1*
1,
b00000100 .
b1111100000001011 /
b00000100 8
b1111100000001011 9
b00000100 L
1M
b00000100 V
1X
1)"
1\"
1i"
1:#
#42000000
0*
0,
0M
0X
0\"
0i"
#43000000
1*
1,
b0000000000000001 D
b0000000000000001 H
1M
1X
b1000000001000010 j
b1000000001000010 k
b00000100 #"
0)"
1\"
1i"
0:#
b0000000000000001 l#
b0000000000000001 p#
b00000000000000001 q#
#44000000
0*
0,
0M
0X
0\"
0i"
#45000000
1*
1,
b1000000001000010 I
1M
b1000000001000010 N
b1000000001000010 O
1X
b1000000001000010 d
b1000000001000010 i
1)"
1\"
1i"
1:#
#46000000
0*
0,
0M
0X
0\"
0i"
#47000000
b0000000000000001 (
1*
1,
b0000000000000001 3
b0000000000000001 >
1M
1X
0)"
1\"
1i"
0:#
#48000000
0*
0,
0M
0X
0\"
0i"
#49000000
b00000101 #
b1000000001000010 $
1*
1,
b00000101 .
b1000000001000010 /
b00000101 8
b1000000001000010 9
b00000101 L
1M
b00000101 V
1X
1)"
1\"
1i"
1:#
#50000000
0*
0,
0M
0X
0\"
0i"
#51000000
1*
1,
b0000000000000000 D
b0000000000000001 E
b000 F
1M
1X
b1000001110000000 j
b1000001110000000 k
b00000101 #"
0)"
1\"
1i"
0:#
b0000000000000000 l#
b0000000000000001 m#
b000 n#
#52000000
0*
0,
0M
0X
0\"
0i"
#53000000
1*
1,
b1000001110000000 I
1M
b1000001110000000 N
b1000001110000000 O
1X
b1000001110000000 d
b1000001110000000 i
1)"
1\"
1i"
1:#
#54000000
0*
0,
0M
0X
0\"
0i"
#55000000
b0000000000000001 '
1*
1,
b0000000000000001 2
b0000000000000001 =
1M
1X
0)"
1\"
1i"
0:#
#56000000
0*
0,
0M
0X
0\"
0i"
#57000000
b00000110 #
b1000001110000000 $
1*
1,
b00000110 .
b1000001110000000 /
b00000110 8
b1000001110000000 9
b00000110 L
1M
b00000110 V
1X
1)"
1\"
1i"
1:#
#58000000
0*
0,
0M
0X
0\"
0i"
#59000000
1*
1,
b0000000000000001 D
b0000000000000000 E
1M
1X
b1000010110000001 j
b1000010110000001 k
b00000110 #"
0)"
1\"
1i"
0:#
b0000000000000001 l#
b0000000000000000 m#
#60000000
0*
0,
0M
0X
0\"
0i"
#61000000
1*
1,
b1000010110000001 I
1M
b1000010110000001 N
b1000010110000001 O
1X
b1000010110000001 d
b1000010110000001 i
1)"
1\"
1i"
1:#
#62000000
0*
0,
0M
0X
0\"
0i"
#63000000
b0000000000000001 %
1*
1,
b0000000000000001 0
b0000000000000001 ;
1M
1X
0)"
1\"
1i"
0:#
#64000000
0*
0,
0M
0X
0\"
0i"
#65000000
b00000111 #
b1000010110000001 $
1*
1,
b00000111 .
b1000010110000001 /
b00000111 8
b1000010110000001 9
b00000111 L
1M
b00000111 V
1X
1)"
1\"
1i"
1:#
#66000000
0*
0,
0M
0X
0\"
0i"
#67000000
1*
1,
1M
1X
b1000100111000100 j
b1000100111000100 k
b00000111 #"
0)"
1\"
1i"
0:#
#68000000
0*
0,
0M
0X
0\"
0i"
#69000000
1*
1,
b1000100111000100 I
1M
b1000100111000100 N
b1000100111000100 O
1X
b1000100111000100 d
b1000100111000100 i
1)"
1\"
1i"
1:#
#70000000
0*
0,
0M
0X
0\"
0i"
#71000000
1*
1,
1M
1X
0)"
1\"
1i"
0:#
#72000000
0*
0,
0M
0X
0\"
0i"
#73000000
b00001000 #
b1000100111000100 $
1*
1,
b00001000 .
b1000100111000100 /
b00001000 8
b1000100111000100 9
b00001000 L
1M
b00001000 V
1X
1)"
1\"
1i"
1:#
#74000000
0*
0,
0M
0X
0\"
0i"
#75000000
1*
1,
b0000000000001010 D
b1111111111111111 E
b1000 G
b0000000000001001 H
1M
1X
b0011000000001010 j
b0011000000001010 k
b00001000 #"
0)"
1\"
1i"
0:#
b0000000000001010 l#
b1111111111111111 m#
b1000 o#
b0000000000001001 p#
b10000000000001001 q#
#76000000
0*
0,
0M
0X
0\"
0i"
#77000000
1*
1,
b0011000000001010 I
1M
b0011000000001010 N
b0011000000001010 O
1X
b0011000000001010 d
b0011000000001010 i
1)"
1\"
1i"
1:#
#78000000
0*
0,
0M
0X
0\"
0i"
#79000000
b0000000000001001 )
1*
1,
b0000000000001001 4
b0000000000001001 ?
b1000 B
1M
1X
0)"
1\"
1i"
0:#
#80000000
0*
0,
0M
0X
0\"
0i"
#81000000
b00001001 #
b0011000000001010 $
1*
1,
b00001001 .
b0011000000001010 /
b00001001 8
b0011000000001010 9
b00001001 L
1M
b00001001 V
1X
1)"
1\"
1i"
1:#
#82000000
0*
0,
0M
0X
0\"
0i"
#83000000
1*
1,
b011 F
b0100 G
b1111111111111111 H
1M
1X
b0010000000000100 j
b0010000000000100 k
b00001001 #"
0)"
1\"
1i"
0:#
b011 n#
b0100 o#
b1111111111111111 p#
b01111111111111111 q#
#84000000
0*
0,
0M
0X
0\"
0i"
#85000000
1*
1,
b0010000000000100 I
1M
b0010000000000100 N
b0010000000000100 O
1X
b0010000000000100 d
b0010000000000100 i
1)"
1\"
1i"
1:#
#86000000
0*
0,
0M
0X
0\"
0i"
#87000000
1*
1,
1M
1X
0)"
1\"
1i"
0:#
#88000000
0*
0,
0M
0X
0\"
0i"
#89000000
b00001010 #
b0010000000000100 $
1*
1,
b00001010 .
b0010000000000100 /
b00001010 8
b0010000000000100 9
b00001010 L
1M
b00001010 V
1X
1)"
1\"
1i"
1:#
#90000000
0*
0,
0M
0X
0\"
0i"
#91000000
b00000100 #
1*
1,
b00000100 .
b00000100 8
b010 F
b0000 G
b0000000000001010 H
b00000100 L
1M
b00000100 V
1X
b0011100000000000 j
b0011100000000000 k
b00001010 #"
0)"
1\"
1i"
0:#
b010 n#
b0000 o#
b0000000000001010 p#
b00000000000001010 q#
#92000000
0*
0,
0M
0X
0\"
0i"
#93000000
1*
1,
b0011100000000000 I
1M
b0011100000000000 N
b0011100000000000 O
1X
b0011100000000000 d
b0011100000000000 i
b1000000001000010 j
b1000000001000010 k
b00000100 #"
1)"
1\"
1i"
1:#
#94000000
0*
0,
0M
0X
0\"
0i"
#95000000
1*
1,
b1000000001000010 I
1M
b1000000001000010 N
b1000000001000010 O
1X
b1000000001000010 d
b1000000001000010 i
0)"
1\"
1i"
0:#
#96000000
0*
0,
0M
0X
0\"
0i"
#97000000
b00000101 #
b1000000001000010 $
1*
1,
b00000101 .
b1000000001000010 /
b00000101 8
b1000000001000010 9
b00000101 L
1M
b00000101 V
1X
1)"
1\"
1i"
1:#
#98000000
0*
0,
0M
0X
0\"
0i"
#99000000
1*
1,
b0000000000000001 D
b0000000000000001 E
b000 F
b0000000000000010 H
1M
1X
b1000001110000000 j
b1000001110000000 k
b00000101 #"
0)"
1\"
1i"
0:#
b0000000000000001 l#
b0000000000000001 m#
b000 n#
b0000000000000010 p#
b00000000000000010 q#
#100000000
0*
0,
0M
0X
0\"
0i"
#101000000
1*
1,
b1000001110000000 I
1M
b1000001110000000 N
b1000001110000000 O
1X
b1000001110000000 d
b1000001110000000 i
1)"
1\"
1i"
1:#
#102000000
0*
0,
0M
0X
0\"
0i"
#103000000
b0000000000000010 '
1*
1,
b0000000000000010 2
b0000000000000010 =
b0000 B
1M
1X
0)"
1\"
1i"
0:#
#104000000
0*
0,
0M
0X
0\"
0i"
#105000000
b00000110 #
b1000001110000000 $
1*
1,
b00000110 .
b1000001110000000 /
b00000110 8
b1000001110000000 9
b00000110 L
1M
b00000110 V
1X
1)"
1\"
1i"
1:#
#106000000
0*
0,
0M
0X
0\"
0i"
#107000000
1*
1,
b0000000000000000 E
b0000000000000001 H
1M
1X
b1000010110000001 j
b1000010110000001 k
b00000110 #"
0)"
1\"
1i"
0:#
b0000000000000000 m#
b0000000000000001 p#
b00000000000000001 q#
#108000000
0*
0,
0M
0X
0\"
0i"
#109000000
1*
1,
b1000010110000001 I
1M
b1000010110000001 N
b1000010110000001 O
1X
b1000010110000001 d
b1000010110000001 i
1)"
1\"
1i"
1:#
#110000000
0*
0,
0M
0X
0\"
0i"
#111000000
1*
1,
1M
1X
0)"
1\"
1i"
0:#
#112000000
0*
0,
0M
0X
0\"
0i"
#113000000
b00000111 #
b1000010110000001 $
1*
1,
b00000111 .
b1000010110000001 /
b00000111 8
b1000010110000001 9
b00000111 L
1M
b00000111 V
1X
1)"
1\"
1i"
1:#
#114000000
0*
0,
0M
0X
0\"
0i"
#115000000
1*
1,
b0000000000000010 D
b0000000000000010 H
1M
1X
b1000100111000100 j
b1000100111000100 k
b00000111 #"
0)"
1\"
1i"
0:#
b0000000000000010 l#
b0000000000000010 p#
b00000000000000010 q#
#116000000
0*
0,
0M
0X
0\"
0i"
#117000000
1*
1,
b1000100111000100 I
1M
b1000100111000100 N
b1000100111000100 O
1X
b1000100111000100 d
b1000100111000100 i
1)"
1\"
1i"
1:#
#118000000
0*
0,
0M
0X
0\"
0i"
#119000000
b0000000000000010 &
1*
1,
b0000000000000010 1
b0000000000000010 <
1M
1X
0)"
1\"
1i"
0:#
#120000000
0*
0,
0M
0X
0\"
0i"
