Project2/task2/adder_tb.vcd
$date
  Fri Sep 29 00:51:56 2023
$end
$version
  GHDL v0
$end
$timescale
  1 fs
$end
$scope module standard $end
$upscope $end
$scope module std_logic_1164 $end
$upscope $end
$scope module numeric_std $end
$upscope $end
$scope module adder_tb $end
$var reg 4 ! a[3:0] $end
$var reg 4 " b[3:0] $end
$var reg 5 # c[4:0] $end
$var reg 5 $ c_int[4:0] $end
$var reg 4 % c_ext[3:0] $end
$var reg 7 & disp0[6:0] $end
$var reg 7 ' disp1[6:0] $end
$scope module uut $end
$var reg 4 ( a[3:0] $end
$var reg 4 ) b[3:0] $end
$var reg 5 * c[4:0] $end
$upscope $end
$scope module t0 $end
$upscope $end
$scope module t1 $end
$var reg 4 + a[3:0] $end
$var reg 7 , segments[6:0] $end
$upscope $end
$scope module t2 $end
$var reg 4 - a[3:0] $end
$var reg 7 . segments[6:0] $end
$upscope $end
$upscope $end
$enddefinitions $end
#0
b0000 !
b0000 "
b00000 #
b00000 $
b0000 %
b1000000 &
b1000000 '
b0000 (
b0000 )
b00000 *
b0000 +
b1000000 ,
b0000 -
b1000000 .
#100000000
b0001 "
b00001 #
b00001 $
b1111001 &
b0001 )
b00001 *
b0001 +
b1111001 ,
#200000000
b0010 "
b00010 #
b00010 $
b0100100 &
b0010 )
b00010 *
b0010 +
b0100100 ,
#300000000
b0011 "
b00011 #
b00011 $
b0110000 &
b0011 )
b00011 *
b0011 +
b0110000 ,
#400000000
b0100 "
b00100 #
b00100 $
b0011001 &
b0100 )
b00100 *
b0100 +
b0011001 ,
#500000000
b0101 "
b00101 #
b00101 $
b0010010 &
b0101 )
b00101 *
b0101 +
b0010010 ,
#600000000
b0110 "
b00110 #
b00110 $
b0000010 &
b0110 )
b00110 *
b0110 +
b0000010 ,
#700000000
b0111 "
b00111 #
b00111 $
b1111000 &
b0111 )
b00111 *
b0111 +
b1111000 ,
#800000000
b1000 "
b01000 #
b01000 $
b0000000 &
b1000 )
b01000 *
b1000 +
b0000000 ,
#900000000
b1001 "
b01001 #
b01001 $
b0011000 &
b1001 )
b01001 *
b1001 +
b0011000 ,
#1000000000
b1010 "
b01010 #
b01010 $
b0001000 &
b1010 )
b01010 *
b1010 +
b0001000 ,
#1100000000
b1011 "
b01011 #
b01011 $
b0000011 &
b1011 )
b01011 *
b1011 +
b0000011 ,
#1200000000
b1100 "
b01100 #
b01100 $
b1000110 &
b1100 )
b01100 *
b1100 +
b1000110 ,
#1300000000
b1101 "
b01101 #
b01101 $
b0100001 &
b1101 )
b01101 *
b1101 +
b0100001 ,
#1400000000
b1110 "
b01110 #
b01110 $
b0000110 &
b1110 )
b01110 *
b1110 +
b0000110 ,
#1500000000
b1111 "
b01111 #
b01111 $
b0001110 &
b1111 )
b01111 *
b1111 +
b0001110 ,
#1600000000
b0001 !
b0000 "
b00001 #
b00001 $
b1111001 &
b0001 (
b0000 )
b00001 *
b0001 +
b1111001 ,
#1700000000
b0001 "
b00010 #
b00010 $
b0100100 &
b0001 )
b00010 *
b0010 +
b0100100 ,
#1800000000
b0010 "
b00011 #
b00011 $
b0110000 &
b0010 )
b00011 *
b0011 +
b0110000 ,
#1900000000
b0011 "
b00100 #
b00100 $
b0011001 &
b0011 )
b00100 *
b0100 +
b0011001 ,
#2000000000
b0100 "
b00101 #
b00101 $
b0010010 &
b0100 )
b00101 *
b0101 +
b0010010 ,
#2100000000
b0101 "
b00110 #
b00110 $
b0000010 &
b0101 )
b00110 *
b0110 +
b0000010 ,
#2200000000
b0110 "
b00111 #
b00111 $
b1111000 &
b0110 )
b00111 *
b0111 +
b1111000 ,
#2300000000
b0111 "
b01000 #
b01000 $
b0000000 &
b0111 )
b01000 *
b1000 +
b0000000 ,
#2400000000
b1000 "
b01001 #
b01001 $
b0011000 &
b1000 )
b01001 *
b1001 +
b0011000 ,
#2500000000
b1001 "
b01010 #
b01010 $
b0001000 &
b1001 )
b01010 *
b1010 +
b0001000 ,
#2600000000
b1010 "
b01011 #
b01011 $
b0000011 &
b1010 )
b01011 *
b1011 +
b0000011 ,
#2700000000
b1011 "
b01100 #
b01100 $
b1000110 &
b1011 )
b01100 *
b1100 +
b1000110 ,
#2800000000
b1100 "
b01101 #
b01101 $
b0100001 &
b1100 )
b01101 *
b1101 +
b0100001 ,
#2900000000
b1101 "
b01110 #
b01110 $
b0000110 &
b1101 )
b01110 *
b1110 +
b0000110 ,
#3000000000
b1110 "
b01111 #
b01111 $
b0001110 &
b1110 )
b01111 *
b1111 +
b0001110 ,
#3100000000
b1111 "
b10000 #
b10000 $
b0001 %
b1000000 &
b1111001 '
b1111 )
b10000 *
b0000 +
b1000000 ,
b0001 -
b1111001 .
#3200000000
b0010 !
b0000 "
b00010 #
b00010 $
b0000 %
b0100100 &
b1000000 '
b0010 (
b0000 )
b00010 *
b0010 +
b0100100 ,
b0000 -
b1000000 .
#3300000000
b0001 "
b00011 #
b00011 $
b0110000 &
b0001 )
b00011 *
b0011 +
b0110000 ,
#3400000000
b0010 "
b00100 #
b00100 $
b0011001 &
b0010 )
b00100 *
b0100 +
b0011001 ,
#3500000000
b0011 "
b00101 #
b00101 $
b0010010 &
b0011 )
b00101 *
b0101 +
b0010010 ,
#3600000000
b0100 "
b00110 #
b00110 $
b0000010 &
b0100 )
b00110 *
b0110 +
b0000010 ,
#3700000000
b0101 "
b00111 #
b00111 $
b1111000 &
b0101 )
b00111 *
b0111 +
b1111000 ,
#3800000000
b0110 "
b01000 #
b01000 $
b0000000 &
b0110 )
b01000 *
b1000 +
b0000000 ,
#3900000000
b0111 "
b01001 #
b01001 $
b0011000 &
b0111 )
b01001 *
b1001 +
b0011000 ,
#4000000000
b1000 "
b01010 #
b01010 $
b0001000 &
b1000 )
b01010 *
b1010 +
b0001000 ,
#4100000000
b1001 "
b01011 #
b01011 $
b0000011 &
b1001 )
b01011 *
b1011 +
b0000011 ,
#4200000000
b1010 "
b01100 #
b01100 $
b1000110 &
b1010 )
b01100 *
b1100 +
b1000110 ,
#4300000000
b1011 "
b01101 #
b01101 $
b0100001 &
b1011 )
b01101 *
b1101 +
b0100001 ,
#4400000000
b1100 "
b01110 #
b01110 $
b0000110 &
b1100 )
b01110 *
b1110 +
b0000110 ,
#4500000000
b1101 "
b01111 #
b01111 $
b0001110 &
b1101 )
b01111 *
b1111 +
b0001110 ,
#4600000000
b1110 "
b10000 #
b10000 $
b0001 %
b1000000 &
b1111001 '
b1110 )
b10000 *
b0000 +
b1000000 ,
b0001 -
b1111001 .
#4700000000
b1111 "
b10001 #
b10001 $
b1111001 &
b1111 )
b10001 *
b0001 +
b1111001 ,
#4800000000
b0011 !
b0000 "
b00011 #
b00011 $
b0000 %
b0110000 &
b1000000 '
b0011 (
b0000 )
b00011 *
b0011 +
b0110000 ,
b0000 -
b1000000 .
#4900000000
b0001 "
b00100 #
b00100 $
b0011001 &
b0001 )
b00100 *
b0100 +
b0011001 ,
#5000000000
b0010 "
b00101 #
b00101 $
b0010010 &
b0010 )
b00101 *
b0101 +
b0010010 ,
#5100000000
b0011 "
b00110 #
b00110 $
b0000010 &
b0011 )
b00110 *
b0110 +
b0000010 ,
#5200000000
b0100 "
b00111 #
b00111 $
b1111000 &
b0100 )
b00111 *
b0111 +
b1111000 ,
#5300000000
b0101 "
b01000 #
b01000 $
b0000000 &
b0101 )
b01000 *
b1000 +
b0000000 ,
#5400000000
b0110 "
b01001 #
b01001 $
b0011000 &
b0110 )
b01001 *
b1001 +
b0011000 ,
#5500000000
b0111 "
b01010 #
b01010 $
b0001000 &
b0111 )
b01010 *
b1010 +
b0001000 ,
#5600000000
b1000 "
b01011 #
b01011 $
b0000011 &
b1000 )
b01011 *
b1011 +
b0000011 ,
#5700000000
b1001 "
b01100 #
b01100 $
b1000110 &
b1001 )
b01100 *
b1100 +
b1000110 ,
#5800000000
b1010 "
b01101 #
b01101 $
b0100001 &
b1010 )
b01101 *
b1101 +
b0100001 ,
#5900000000
b1011 "
b01110 #
b01110 $
b0000110 &
b1011 )
b01110 *
b1110 +
b0000110 ,
#6000000000
b1100 "
b01111 #
b01111 $
b0001110 &
b1100 )
b01111 *
b1111 +
b0001110 ,
#6100000000
b1101 "
b10000 #
b10000 $
b0001 %
b1000000 &
b1111001 '
b1101 )
b10000 *
b0000 +
b1000000 ,
b0001 -
b1111001 .
#6200000000
b1110 "
b10001 #
b10001 $
b1111001 &
b1110 )
b10001 *
b0001 +
b1111001 ,
#6300000000
b1111 "
b10010 #
b10010 $
b0100100 &
b1111 )
b10010 *
b0010 +
b0100100 ,
#6400000000
b0100 !
b0000 "
b00100 #
b00100 $
b0000 %
b0011001 &
b1000000 '
b0100 (
b0000 )
b00100 *
b0100 +
b0011001 ,
b0000 -
b1000000 .
#6500000000
b0001 "
b00101 #
b00101 $
b0010010 &
b0001 )
b00101 *
b0101 +
b0010010 ,
#6600000000
b0010 "
b00110 #
b00110 $
b0000010 &
b0010 )
b00110 *
b0110 +
b0000010 ,
#6700000000
b0011 "
b00111 #
b00111 $
b1111000 &
b0011 )
b00111 *
b0111 +
b1111000 ,
#6800000000
b0100 "
b01000 #
b01000 $
b0000000 &
b0100 )
b01000 *
b1000 +
b0000000 ,
#6900000000
b0101 "
b01001 #
b01001 $
b0011000 &
b0101 )
b01001 *
b1001 +
b0011000 ,
#7000000000
b0110 "
b01010 #
b01010 $
b0001000 &
b0110 )
b01010 *
b1010 +
b0001000 ,
#7100000000
b0111 "
b01011 #
b01011 $
b0000011 &
b0111 )
b01011 *
b1011 +
b0000011 ,
#7200000000
b1000 "
b01100 #
b01100 $
b1000110 &
b1000 )
b01100 *
b1100 +
b1000110 ,
#7300000000
b1001 "
b01101 #
b01101 $
b0100001 &
b1001 )
b01101 *
b1101 +
b0100001 ,
#7400000000
b1010 "
b01110 #
b01110 $
b0000110 &
b1010 )
b01110 *
b1110 +
b0000110 ,
#7500000000
b1011 "
b01111 #
b01111 $
b0001110 &
b1011 )
b01111 *
b1111 +
b0001110 ,
#7600000000
b1100 "
b10000 #
b10000 $
b0001 %
b1000000 &
b1111001 '
b1100 )
b10000 *
b0000 +
b1000000 ,
b0001 -
b1111001 .
#7700000000
b1101 "
b10001 #
b10001 $
b1111001 &
b1101 )
b10001 *
b0001 +
b1111001 ,
#7800000000
b1110 "
b10010 #
b10010 $
b0100100 &
b1110 )
b10010 *
b0010 +
b0100100 ,
#7900000000
b1111 "
b10011 #
b10011 $
b0110000 &
b1111 )
b10011 *
b0011 +
b0110000 ,
#8000000000
b0101 !
b0000 "
b00101 #
b00101 $
b0000 %
b0010010 &
b1000000 '
b0101 (
b0000 )
b00101 *
b0101 +
b0010010 ,
b0000 -
b1000000 .
#8100000000
b0001 "
b00110 #
b00110 $
b0000010 &
b0001 )
b00110 *
b0110 +
b0000010 ,
#8200000000
b0010 "
b00111 #
b00111 $
b1111000 &
b0010 )
b00111 *
b0111 +
b1111000 ,
#8300000000
b0011 "
b01000 #
b01000 $
b0000000 &
b0011 )
b01000 *
b1000 +
b0000000 ,
#8400000000
b0100 "
b01001 #
b01001 $
b0011000 &
b0100 )
b01001 *
b1001 +
b0011000 ,
#8500000000
b0101 "
b01010 #
b01010 $
b0001000 &
b0101 )
b01010 *
b1010 +
b0001000 ,
#8600000000
b0110 "
b01011 #
b01011 $
b0000011 &
b0110 )
b01011 *
b1011 +
b0000011 ,
#8700000000
b0111 "
b01100 #
b01100 $
b1000110 &
b0111 )
b01100 *
b1100 +
b1000110 ,
#8800000000
b1000 "
b01101 #
b01101 $
b0100001 &
b1000 )
b01101 *
b1101 +
b0100001 ,
#8900000000
b1001 "
b01110 #
b01110 $
b0000110 &
b1001 )
b01110 *
b1110 +
b0000110 ,
#9000000000
b1010 "
b01111 #
b01111 $
b0001110 &
b1010 )
b01111 *
b1111 +
b0001110 ,
#9100000000
b1011 "
b10000 #
b10000 $
b0001 %
b1000000 &
b1111001 '
b1011 )
b10000 *
b0000 +
b1000000 ,
b0001 -
b1111001 .
#9200000000
b1100 "
b10001 #
b10001 $
b1111001 &
b1100 )
b10001 *
b0001 +
b1111001 ,
#9300000000
b1101 "
b10010 #
b10010 $
b0100100 &
b1101 )
b10010 *
b0010 +
b0100100 ,
#9400000000
b1110 "
b10011 #
b10011 $
b0110000 &
b1110 )
b10011 *
b0011 +
b0110000 ,
#9500000000
b1111 "
b10100 #
b10100 $
b0011001 &
b1111 )
b10100 *
b0100 +
b0011001 ,
#9600000000
b0110 !
b0000 "
b00110 #
b00110 $
b0000 %
b0000010 &
b1000000 '
b0110 (
b0000 )
b00110 *
b0110 +
b0000010 ,
b0000 -
b1000000 .
#9700000000
b0001 "
b00111 #
b00111 $
b1111000 &
b0001 )
b00111 *
b0111 +
b1111000 ,
#9800000000
b0010 "
b01000 #
b01000 $
b0000000 &
b0010 )
b01000 *
b1000 +
b0000000 ,
#9900000000
b0011 "
b01001 #
b01001 $
b0011000 &
b0011 )
b01001 *
b1001 +
b0011000 ,
#10000000000
b0100 "
b01010 #
b01010 $
b0001000 &
b0100 )
b01010 *
b1010 +
b0001000 ,
#10100000000
b0101 "
b01011 #
b01011 $
b0000011 &
b0101 )
b01011 *
b1011 +
b0000011 ,
#10200000000
b0110 "
b01100 #
b01100 $
b1000110 &
b0110 )
b01100 *
b1100 +
b1000110 ,
#10300000000
b0111 "
b01101 #
b01101 $
b0100001 &
b0111 )
b01101 *
b1101 +
b0100001 ,
#10400000000
b1000 "
b01110 #
b01110 $
b0000110 &
b1000 )
b01110 *
b1110 +
b0000110 ,
#10500000000
b1001 "
b01111 #
b01111 $
b0001110 &
b1001 )
b01111 *
b1111 +
b0001110 ,
#10600000000
b1010 "
b10000 #
b10000 $
b0001 %
b1000000 &
b1111001 '
b1010 )
b10000 *
b0000 +
b1000000 ,
b0001 -
b1111001 .
#10700000000
b1011 "
b10001 #
b10001 $
b1111001 &
b1011 )
b10001 *
b0001 +
b1111001 ,
#10800000000
b1100 "
b10010 #
b10010 $
b0100100 &
b1100 )
b10010 *
b0010 +
b0100100 ,
#10900000000
b1101 "
b10011 #
b10011 $
b0110000 &
b1101 )
b10011 *
b0011 +
b0110000 ,
#11000000000
b1110 "
b10100 #
b10100 $
b0011001 &
b1110 )
b10100 *
b0100 +
b0011001 ,
#11100000000
b1111 "
b10101 #
b10101 $
b0010010 &
b1111 )
b10101 *
b0101 +
b0010010 ,
#11200000000
b0111 !
b0000 "
b00111 #
b00111 $
b0000 %
b1111000 &
b1000000 '
b0111 (
b0000 )
b00111 *
b0111 +
b1111000 ,
b0000 -
b1000000 .
#11300000000
b0001 "
b01000 #
b01000 $
b0000000 &
b0001 )
b01000 *
b1000 +
b0000000 ,
#11400000000
b0010 "
b01001 #
b01001 $
b0011000 &
b0010 )
b01001 *
b1001 +
b0011000 ,
#11500000000
b0011 "
b01010 #
b01010 $
b0001000 &
b0011 )
b01010 *
b1010 +
b0001000 ,
#11600000000
b0100 "
b01011 #
b01011 $
b0000011 &
b0100 )
b01011 *
b1011 +
b0000011 ,
#11700000000
b0101 "
b01100 #
b01100 $
b1000110 &
b0101 )
b01100 *
b1100 +
b1000110 ,
#11800000000
b0110 "
b01101 #
b01101 $
b0100001 &
b0110 )
b01101 *
b1101 +
b0100001 ,
#11900000000
b0111 "
b01110 #
b01110 $
b0000110 &
b0111 )
b01110 *
b1110 +
b0000110 ,
#12000000000
b1000 "
b01111 #
b01111 $
b0001110 &
b1000 )
b01111 *
b1111 +
b0001110 ,
#12100000000
b1001 "
b10000 #
b10000 $
b0001 %
b1000000 &
b1111001 '
b1001 )
b10000 *
b0000 +
b1000000 ,
b0001 -
b1111001 .
#12200000000
b1010 "
b10001 #
b10001 $
b1111001 &
b1010 )
b10001 *
b0001 +
b1111001 ,
#12300000000
b1011 "
b10010 #
b10010 $
b0100100 &
b1011 )
b10010 *
b0010 +
b0100100 ,
#12400000000
b1100 "
b10011 #
b10011 $
b0110000 &
b1100 )
b10011 *
b0011 +
b0110000 ,
#12500000000
b1101 "
b10100 #
b10100 $
b0011001 &
b1101 )
b10100 *
b0100 +
b0011001 ,
#12600000000
b1110 "
b10101 #
b10101 $
b0010010 &
b1110 )
b10101 *
b0101 +
b0010010 ,
#12700000000
b1111 "
b10110 #
b10110 $
b0000010 &
b1111 )
b10110 *
b0110 +
b0000010 ,
#12800000000
b1000 !
b0000 "
b01000 #
b01000 $
b0000 %
b0000000 &
b1000000 '
b1000 (
b0000 )
b01000 *
b1000 +
b0000000 ,
b0000 -
b1000000 .
#12900000000
b0001 "
b01001 #
b01001 $
b0011000 &
b0001 )
b01001 *
b1001 +
b0011000 ,
#13000000000
b0010 "
b01010 #
b01010 $
b0001000 &
b0010 )
b01010 *
b1010 +
b0001000 ,
#13100000000
b0011 "
b01011 #
b01011 $
b0000011 &
b0011 )
b01011 *
b1011 +
b0000011 ,
#13200000000
b0100 "
b01100 #
b01100 $
b1000110 &
b0100 )
b01100 *
b1100 +
b1000110 ,
#13300000000
b0101 "
b01101 #
b01101 $
b0100001 &
b0101 )
b01101 *
b1101 +
b0100001 ,
#13400000000
b0110 "
b01110 #
b01110 $
b0000110 &
b0110 )
b01110 *
b1110 +
b0000110 ,
#13500000000
b0111 "
b01111 #
b01111 $
b0001110 &
b0111 )
b01111 *
b1111 +
b0001110 ,
#13600000000
b1000 "
b10000 #
b10000 $
b0001 %
b1000000 &
b1111001 '
b1000 )
b10000 *
b0000 +
b1000000 ,
b0001 -
b1111001 .
#13700000000
b1001 "
b10001 #
b10001 $
b1111001 &
b1001 )
b10001 *
b0001 +
b1111001 ,
#13800000000
b1010 "
b10010 #
b10010 $
b0100100 &
b1010 )
b10010 *
b0010 +
b0100100 ,
#13900000000
b1011 "
b10011 #
b10011 $
b0110000 &
b1011 )
b10011 *
b0011 +
b0110000 ,
#14000000000
b1100 "
b10100 #
b10100 $
b0011001 &
b1100 )
b10100 *
b0100 +
b0011001 ,
#14100000000
b1101 "
b10101 #
b10101 $
b0010010 &
b1101 )
b10101 *
b0101 +
b0010010 ,
#14200000000
b1110 "
b10110 #
b10110 $
b0000010 &
b1110 )
b10110 *
b0110 +
b0000010 ,
#14300000000
b1111 "
b10111 #
b10111 $
b1111000 &
b1111 )
b10111 *
b0111 +
b1111000 ,
#14400000000
b1001 !
b0000 "
b01001 #
b01001 $
b0000 %
b0011000 &
b1000000 '
b1001 (
b0000 )
b01001 *
b1001 +
b0011000 ,
b0000 -
b1000000 .
#14500000000
b0001 "
b01010 #
b01010 $
b0001000 &
b0001 )
b01010 *
b1010 +
b0001000 ,
#14600000000
b0010 "
b01011 #
b01011 $
b0000011 &
b0010 )
b01011 *
b1011 +
b0000011 ,
#14700000000
b0011 "
b01100 #
b01100 $
b1000110 &
b0011 )
b01100 *
b1100 +
b1000110 ,
#14800000000
b0100 "
b01101 #
b01101 $
b0100001 &
b0100 )
b01101 *
b1101 +
b0100001 ,
#14900000000
b0101 "
b01110 #
b01110 $
b0000110 &
b0101 )
b01110 *
b1110 +
b0000110 ,
#15000000000
b0110 "
b01111 #
b01111 $
b0001110 &
b0110 )
b01111 *
b1111 +
b0001110 ,
#15100000000
b0111 "
b10000 #
b10000 $
b0001 %
b1000000 &
b1111001 '
b0111 )
b10000 *
b0000 +
b1000000 ,
b0001 -
b1111001 .
#15200000000
b1000 "
b10001 #
b10001 $
b1111001 &
b1000 )
b10001 *
b0001 +
b1111001 ,
#15300000000
b1001 "
b10010 #
b10010 $
b0100100 &
b1001 )
b10010 *
b0010 +
b0100100 ,
#15400000000
b1010 "
b10011 #
b10011 $
b0110000 &
b1010 )
b10011 *
b0011 +
b0110000 ,
#15500000000
b1011 "
b10100 #
b10100 $
b0011001 &
b1011 )
b10100 *
b0100 +
b0011001 ,
#15600000000
b1100 "
b10101 #
b10101 $
b0010010 &
b1100 )
b10101 *
b0101 +
b0010010 ,
#15700000000
b1101 "
b10110 #
b10110 $
b0000010 &
b1101 )
b10110 *
b0110 +
b0000010 ,
#15800000000
b1110 "
b10111 #
b10111 $
b1111000 &
b1110 )
b10111 *
b0111 +
b1111000 ,
#15900000000
b1111 "
b11000 #
b11000 $
b0000000 &
b1111 )
b11000 *
b1000 +
b0000000 ,
#16000000000
b1010 !
b0000 "
b01010 #
b01010 $
b0000 %
b0001000 &
b1000000 '
b1010 (
b0000 )
b01010 *
b1010 +
b0001000 ,
b0000 -
b1000000 .
#16100000000
b0001 "
b01011 #
b01011 $
b0000011 &
b0001 )
b01011 *
b1011 +
b0000011 ,
#16200000000
b0010 "
b01100 #
b01100 $
b1000110 &
b0010 )
b01100 *
b1100 +
b1000110 ,
#16300000000
b0011 "
b01101 #
b01101 $
b0100001 &
b0011 )
b01101 *
b1101 +
b0100001 ,
#16400000000
b0100 "
b01110 #
b01110 $
b0000110 &
b0100 )
b01110 *
b1110 +
b0000110 ,
#16500000000
b0101 "
b01111 #
b01111 $
b0001110 &
b0101 )
b01111 *
b1111 +
b0001110 ,
#16600000000
b0110 "
b10000 #
b10000 $
b0001 %
b1000000 &
b1111001 '
b0110 )
b10000 *
b0000 +
b1000000 ,
b0001 -
b1111001 .
#16700000000
b0111 "
b10001 #
b10001 $
b1111001 &
b0111 )
b10001 *
b0001 +
b1111001 ,
#16800000000
b1000 "
b10010 #
b10010 $
b0100100 &
b1000 )
b10010 *
b0010 +
b0100100 ,
#16900000000
b1001 "
b10011 #
b10011 $
b0110000 &
b1001 )
b10011 *
b0011 +
b0110000 ,
#17000000000
b1010 "
b10100 #
b10100 $
b0011001 &
b1010 )
b10100 *
b0100 +
b0011001 ,
#17100000000
b1011 "
b10101 #
b10101 $
b0010010 &
b1011 )
b10101 *
b0101 +
b0010010 ,
#17200000000
b1100 "
b10110 #
b10110 $
b0000010 &
b1100 )
b10110 *
b0110 +
b0000010 ,
#17300000000
b1101 "
b10111 #
b10111 $
b1111000 &
b1101 )
b10111 *
b0111 +
b1111000 ,
#17400000000
b1110 "
b11000 #
b11000 $
b0000000 &
b1110 )
b11000 *
b1000 +
b0000000 ,
#17500000000
b1111 "
b11001 #
b11001 $
b0011000 &
b1111 )
b11001 *
b1001 +
b0011000 ,
#17600000000
b1011 !
b0000 "
b01011 #
b01011 $
b0000 %
b0000011 &
b1000000 '
b1011 (
b0000 )
b01011 *
b1011 +
b0000011 ,
b0000 -
b1000000 .
#17700000000
b0001 "
b01100 #
b01100 $
b1000110 &
b0001 )
b01100 *
b1100 +
b1000110 ,
#17800000000
b0010 "
b01101 #
b01101 $
b0100001 &
b0010 )
b01101 *
b1101 +
b0100001 ,
#17900000000
b0011 "
b01110 #
b01110 $
b0000110 &
b0011 )
b01110 *
b1110 +
b0000110 ,
#18000000000
b0100 "
b01111 #
b01111 $
b0001110 &
b0100 )
b01111 *
b1111 +
b0001110 ,
#18100000000
b0101 "
b10000 #
b10000 $
b0001 %
b1000000 &
b1111001 '
b0101 )
b10000 *
b0000 +
b1000000 ,
b0001 -
b1111001 .
#18200000000
b0110 "
b10001 #
b10001 $
b1111001 &
b0110 )
b10001 *
b0001 +
b1111001 ,
#18300000000
b0111 "
b10010 #
b10010 $
b0100100 &
b0111 )
b10010 *
b0010 +
b0100100 ,
#18400000000
b1000 "
b10011 #
b10011 $
b0110000 &
b1000 )
b10011 *
b0011 +
b0110000 ,
#18500000000
b1001 "
b10100 #
b10100 $
b0011001 &
b1001 )
b10100 *
b0100 +
b0011001 ,
#18600000000
b1010 "
b10101 #
b10101 $
b0010010 &
b1010 )
b10101 *
b0101 +
b0010010 ,
#18700000000
b1011 "
b10110 #
b10110 $
b0000010 &
b1011 )
b10110 *
b0110 +
b0000010 ,
#18800000000
b1100 "
b10111 #
b10111 $
b1111000 &
b1100 )
b10111 *
b0111 +
b1111000 ,
#18900000000
b1101 "
b11000 #
b11000 $
b0000000 &
b1101 )
b11000 *
b1000 +
b0000000 ,
#19000000000
b1110 "
b11001 #
b11001 $
b0011000 &
b1110 )
b11001 *
b1001 +
b0011000 ,
#19100000000
b1111 "
b11010 #
b11010 $
b0001000 &
b1111 )
b11010 *
b1010 +
b0001000 ,
#19200000000
b1100 !
b0000 "
b01100 #
b01100 $
b0000 %
b1000110 &
b1000000 '
b1100 (
b0000 )
b01100 *
b1100 +
b1000110 ,
b0000 -
b1000000 .
#19300000000
b0001 "
b01101 #
b01101 $
b0100001 &
b0001 )
b01101 *
b1101 +
b0100001 ,
#19400000000
b0010 "
b01110 #
b01110 $
b0000110 &
b0010 )
b01110 *
b1110 +
b0000110 ,
#19500000000
b0011 "
b01111 #
b01111 $
b0001110 &
b0011 )
b01111 *
b1111 +
b0001110 ,
#19600000000
b0100 "
b10000 #
b10000 $
b0001 %
b1000000 &
b1111001 '
b0100 )
b10000 *
b0000 +
b1000000 ,
b0001 -
b1111001 .
#19700000000
b0101 "
b10001 #
b10001 $
b1111001 &
b0101 )
b10001 *
b0001 +
b1111001 ,
#19800000000
b0110 "
b10010 #
b10010 $
b0100100 &
b0110 )
b10010 *
b0010 +
b0100100 ,
#19900000000
b0111 "
b10011 #
b10011 $
b0110000 &
b0111 )
b10011 *
b0011 +
b0110000 ,
#20000000000
b1000 "
b10100 #
b10100 $
b0011001 &
b1000 )
b10100 *
b0100 +
b0011001 ,
#20100000000
b1001 "
b10101 #
b10101 $
b0010010 &
b1001 )
b10101 *
b0101 +
b0010010 ,
#20200000000
b1010 "
b10110 #
b10110 $
b0000010 &
b1010 )
b10110 *
b0110 +
b0000010 ,
#20300000000
b1011 "
b10111 #
b10111 $
b1111000 &
b1011 )
b10111 *
b0111 +
b1111000 ,
#20400000000
b1100 "
b11000 #
b11000 $
b0000000 &
b1100 )
b11000 *
b1000 +
b0000000 ,
#20500000000
b1101 "
b11001 #
b11001 $
b0011000 &
b1101 )
b11001 *
b1001 +
b0011000 ,
#20600000000
b1110 "
b11010 #
b11010 $
b0001000 &
b1110 )
b11010 *
b1010 +
b0001000 ,
#20700000000
b1111 "
b11011 #
b11011 $
b0000011 &
b1111 )
b11011 *
b1011 +
b0000011 ,
#20800000000
b1101 !
b0000 "
b01101 #
b01101 $
b0000 %
b0100001 &
b1000000 '
b1101 (
b0000 )
b01101 *
b1101 +
b0100001 ,
b0000 -
b1000000 .
#20900000000
b0001 "
b01110 #
b01110 $
b0000110 &
b0001 )
b01110 *
b1110 +
b0000110 ,
#21000000000
b0010 "
b01111 #
b01111 $
b0001110 &
b0010 )
b01111 *
b1111 +
b0001110 ,
#21100000000
b0011 "
b10000 #
b10000 $
b0001 %
b1000000 &
b1111001 '
b0011 )
b10000 *
b0000 +
b1000000 ,
b0001 -
b1111001 .
#21200000000
b0100 "
b10001 #
b10001 $
b1111001 &
b0100 )
b10001 *
b0001 +
b1111001 ,
#21300000000
b0101 "
b10010 #
b10010 $
b0100100 &
b0101 )
b10010 *
b0010 +
b0100100 ,
#21400000000
b0110 "
b10011 #
b10011 $
b0110000 &
b0110 )
b10011 *
b0011 +
b0110000 ,
#21500000000
b0111 "
b10100 #
b10100 $
b0011001 &
b0111 )
b10100 *
b0100 +
b0011001 ,
#21600000000
b1000 "
b10101 #
b10101 $
b0010010 &
b1000 )
b10101 *
b0101 +
b0010010 ,
#21700000000
b1001 "
b10110 #
b10110 $
b0000010 &
b1001 )
b10110 *
b0110 +
b0000010 ,
#21800000000
b1010 "
b10111 #
b10111 $
b1111000 &
b1010 )
b10111 *
b0111 +
b1111000 ,
#21900000000
b1011 "
b11000 #
b11000 $
b0000000 &
b1011 )
b11000 *
b1000 +
b0000000 ,
#22000000000
b1100 "
b11001 #
b11001 $
b0011000 &
b1100 )
b11001 *
b1001 +
b0011000 ,
#22100000000
b1101 "
b11010 #
b11010 $
b0001000 &
b1101 )
b11010 *
b1010 +
b0001000 ,
#22200000000
b1110 "
b11011 #
b11011 $
b0000011 &
b1110 )
b11011 *
b1011 +
b0000011 ,
#22300000000
b1111 "
b11100 #
b11100 $
b1000110 &
b1111 )
b11100 *
b1100 +
b1000110 ,
#22400000000
b1110 !
b0000 "
b01110 #
b01110 $
b0000 %
b0000110 &
b1000000 '
b1110 (
b0000 )
b01110 *
b1110 +
b0000110 ,
b0000 -
b1000000 .
#22500000000
b0001 "
b01111 #
b01111 $
b0001110 &
b0001 )
b01111 *
b1111 +
b0001110 ,
#22600000000
b0010 "
b10000 #
b10000 $
b0001 %
b1000000 &
b1111001 '
b0010 )
b10000 *
b0000 +
b1000000 ,
b0001 -
b1111001 .
#22700000000
b0011 "
b10001 #
b10001 $
b1111001 &
b0011 )
b10001 *
b0001 +
b1111001 ,
#22800000000
b0100 "
b10010 #
b10010 $
b0100100 &
b0100 )
b10010 *
b0010 +
b0100100 ,
#22900000000
b0101 "
b10011 #
b10011 $
b0110000 &
b0101 )
b10011 *
b0011 +
b0110000 ,
#23000000000
b0110 "
b10100 #
b10100 $
b0011001 &
b0110 )
b10100 *
b0100 +
b0011001 ,
#23100000000
b0111 "
b10101 #
b10101 $
b0010010 &
b0111 )
b10101 *
b0101 +
b0010010 ,
#23200000000
b1000 "
b10110 #
b10110 $
b0000010 &
b1000 )
b10110 *
b0110 +
b0000010 ,
#23300000000
b1001 "
b10111 #
b10111 $
b1111000 &
b1001 )
b10111 *
b0111 +
b1111000 ,
#23400000000
b1010 "
b11000 #
b11000 $
b0000000 &
b1010 )
b11000 *
b1000 +
b0000000 ,
#23500000000
b1011 "
b11001 #
b11001 $
b0011000 &
b1011 )
b11001 *
b1001 +
b0011000 ,
#23600000000
b1100 "
b11010 #
b11010 $
b0001000 &
b1100 )
b11010 *
b1010 +
b0001000 ,
#23700000000
b1101 "
b11011 #
b11011 $
b0000011 &
b1101 )
b11011 *
b1011 +
b0000011 ,
#23800000000
b1110 "
b11100 #
b11100 $
b1000110 &
b1110 )
b11100 *
b1100 +
b1000110 ,
